A tutorial on variant filtering on FFPE samples using Ideafix
…
Equivalently, with XGBoost:

predictions_XGBoost <- classify_variants(variant_descriptors = descriptors, algorithm = "XGBoost")

In both cases, if everything went well, you will see the message Classification went successfully.

The resulting object is again a data frame with 6 columns (chromosome, variant position in chromosome, reference allele, alternate allele, deamination score and class label). Of interest are the last two:

The DEAM_SCORE column contains a numeric number that reflects the certainty about the classification as deamination, 1 being the highest certainty. The DEAMINATION column is a categorical classification based on the score. Note that the threshold used for this classification follows the particular criterion of maximizing the \(F_1\) score.

Each variant has a value for each of those six columns.

predictions_XGBoost
#> # A tibble: 2,508 x 6
#>    CHROM POS      REF   ALT   DEAM_SCORE DEAMINATION
#>    <chr> <chr>    <chr> <chr>      <dbl> <fct>      
#>  1 chr15 20170083 C     T          0.994 deamination
#>  2 chr15 20170321 C     T          1.000 deamination
#>  3 chr15 20170371 C     T          0.999 deamination
#>  4 chr15 20213671 C     T          0.987 deamination
#>  5 chr15 20444711 C     T          0.998 deamination
#>  6 chr15 20495268 C     T          0.777 deamination
#>  7 chr15 20645909 C     T          0.932 deamination
#>  8 chr15 20776154 G     A          0.995 deamination
#>  9 chr15 20833128 G     A          0.998 deamination
#> 10 chr15 21131124 G     A          0.987 deamination
#> #  with 2,498 more rows
predictions_RF
#> # A tibble: 2,508 x 6
#>    CHROM POS      REF   ALT   DEAM_SCORE DEAMINATION    
#>    <chr> <chr>    <chr> <chr>      <dbl> <fct>          
#>  1 chr15 20170083 C     T          1.000 deamination    
#>  2 chr15 20170321 C     T          1.000 deamination    
#>  3 chr15 20170371 C     T          0.999 deamination    
#>  4 chr15 20213671 C     T          0.995 deamination    
#>  5 chr15 20444711 C     T          0.998 deamination    
#>  6 chr15 20495268 C     T          0.455 non-deamination
#>  7 chr15 20645909 C     T          0.957 deamination    
#>  8 chr15 20776154 G     A          0.979 deamination    
#>  9 chr15 20833128 G     A          0.994 deamination    
#> 10 chr15 21131124 G     A          0.976 deamination    
#> #  with 2,498 more rows
…
